<?xml version="1.0" encoding="utf-8"?>
<!--/15415802/776903/2.49/8/4/Connector/-->
<!DOCTYPE curve SYSTEM "eagle.dtd">
<eagle version="7.7.0">
<drawing>
<settings>
<setting alwaysvectorfont="no"/>
<setting verticaltext="up"/>
</settings>
<grid distance="0.1" unitdist="inch" unit="inch" style="lines" multiple="1" display="no" altdistance="0.01" altunitdist="inch" altunit="inch"/>
<layers>
<layer number="1" name="Top" color="4" fill="1" visible="yes" active="yes"/>
<layer number="16" name="Bottom" color="1" fill="1" visible="yes" active="yes"/>
<layer number="17" name="Pads" color="2" fill="1" visible="yes" active="yes"/>
<layer number="18" name="Vias" color="2" fill="1" visible="yes" active="yes"/>
<layer number="19" name="Unrouted" color="6" fill="1" visible="yes" active="yes"/>
<layer number="20" name="Dimension" color="15" fill="1" visible="yes" active="yes"/>
<layer number="21" name="tPlace" color="7" fill="1" visible="yes" active="yes"/>
<layer number="22" name="bPlace" color="7" fill="1" visible="yes" active="yes"/>
<layer number="23" name="tOrigins" color="15" fill="1" visible="yes" active="yes"/>
<layer number="24" name="bOrigins" color="15" fill="1" visible="yes" active="yes"/>
<layer number="25" name="tNames" color="7" fill="1" visible="yes" active="yes"/>
<layer number="26" name="bNames" color="7" fill="1" visible="yes" active="yes"/>
<layer number="27" name="tValues" color="7" fill="1" visible="yes" active="yes"/>
<layer number="28" name="bValues" color="7" fill="1" visible="yes" active="yes"/>
<layer number="29" name="tStop" color="7" fill="3" visible="no" active="yes"/>
<layer number="30" name="bStop" color="7" fill="6" visible="no" active="yes"/>
<layer number="31" name="tCream" color="7" fill="4" visible="no" active="yes"/>
<layer number="32" name="bCream" color="7" fill="5" visible="no" active="yes"/>
<layer number="33" name="tFinish" color="6" fill="3" visible="no" active="yes"/>
<layer number="34" name="bFinish" color="6" fill="6" visible="no" active="yes"/>
<layer number="35" name="tGlue" color="7" fill="4" visible="no" active="yes"/>
<layer number="36" name="bGlue" color="7" fill="5" visible="no" active="yes"/>
<layer number="37" name="tTest" color="7" fill="1" visible="no" active="yes"/>
<layer number="38" name="bTest" color="7" fill="1" visible="no" active="yes"/>
<layer number="39" name="tKeepout" color="4" fill="11" visible="yes" active="yes"/>
<layer number="40" name="bKeepout" color="1" fill="11" visible="yes" active="yes"/>
<layer number="41" name="tRestrict" color="4" fill="10" visible="yes" active="yes"/>
<layer number="42" name="bRestrict" color="1" fill="10" visible="yes" active="yes"/>
<layer number="43" name="vRestrict" color="2" fill="10" visible="yes" active="yes"/>
<layer number="44" name="Drills" color="7" fill="1" visible="no" active="yes"/>
<layer number="45" name="Holes" color="7" fill="1" visible="no" active="yes"/>
<layer number="46" name="Milling" color="3" fill="1" visible="no" active="yes"/>
<layer number="47" name="Measures" color="7" fill="1" visible="no" active="yes"/>
<layer number="48" name="Document" color="7" fill="1" visible="yes" active="yes"/>
<layer number="49" name="Reference" color="7" fill="1" visible="yes" active="yes"/>
<layer number="51" name="tDocu" color="7" fill="1" visible="yes" active="yes"/>
<layer number="52" name="bDocu" color="7" fill="1" visible="yes" active="yes"/>
<layer number="90" name="Modules" color="5" fill="1" visible="yes" active="yes"/>
<layer number="91" name="Nets" color="2" fill="1" visible="yes" active="yes"/>
<layer number="92" name="Busses" color="1" fill="1" visible="yes" active="yes"/>
<layer number="93" name="Pins" color="2" fill="1" visible="no" active="yes"/>
<layer number="94" name="Symbols" color="4" fill="1" visible="yes" active="yes"/>
<layer number="95" name="Names" color="7" fill="1" visible="yes" active="yes"/>
<layer number="96" name="Values" color="7" fill="1" visible="yes" active="yes"/>
<layer number="97" name="Info" color="7" fill="1" visible="yes" active="yes"/>
<layer number="98" name="Guide" color="6" fill="1" visible="yes" active="yes"/>
</layers>
<library>
<description>&lt;Straight 2.54mm Black Brass Plugin,P=2.54mm Pin Headers ROHS&lt;/b&gt;&lt;p&gt;
&lt;author&gt;Created by SamacSys&lt;/author&gt;</description>
<packages>
<package name="HDRV8W64P0X254_1X8_2032X250X89">
<description>&lt;b&gt;PZ254V-11-08P&lt;/b&gt;&lt;br&gt;
</description>
<pad name="1" x="0" y="0" drill="1.1" diameter="1.65" shape="square"/>
<pad name="2" x="2.54" y="0" drill="1.1" diameter="1.65"/>
<pad name="3" x="5.08" y="0" drill="1.1" diameter="1.65"/>
<pad name="4" x="7.62" y="0" drill="1.1" diameter="1.65"/>
<pad name="5" x="10.16" y="0" drill="1.1" diameter="1.65"/>
<pad name="6" x="12.7" y="0" drill="1.1" diameter="1.65"/>
<pad name="7" x="15.24" y="0" drill="1.1" diameter="1.65"/>
<pad name="8" x="17.78" y="0" drill="1.1" diameter="1.65"/>
<text x="0" y="0" align="center" size="1.27" layer="25" rot="R0" >&gt;NAME</text>
<text x="0" y="0" align="center" size="1.27" layer="27" rot="R0" >&gt;VALUE</text>
<wire x1="-1.56" y1="-1.575" x2="-1.56" y2="1.575" width="0.05" layer="51"/>
<wire x1="-1.56" y1="1.575" x2="19.34" y2="1.575" width="0.05" layer="51"/>
<wire x1="19.34" y1="1.575" x2="19.34" y2="-1.575" width="0.05" layer="51"/>
<wire x1="19.34" y1="-1.575" x2="-1.56" y2="-1.575" width="0.05" layer="51"/>
<wire x1="-1.31" y1="-1.325" x2="-1.31" y2="1.325" width="0.1" layer="51"/>
<wire x1="-1.31" y1="1.325" x2="19.09" y2="1.325" width="0.1" layer="51"/>
<wire x1="19.09" y1="1.325" x2="19.09" y2="-1.325" width="0.1" layer="51"/>
<wire x1="19.09" y1="-1.325" x2="-1.31" y2="-1.325" width="0.1" layer="51"/>
<wire x1="-1.31" y1="0" x2="-1.31" y2="-1.325" width="0.2" layer="21"/>
<wire x1="-1.31" y1="-1.325" x2="19.09" y2="-1.325" width="0.2" layer="21"/>
<wire x1="19.09" y1="-1.325" x2="19.09" y2="1.325" width="0.2" layer="21"/>
<wire x1="19.09" y1="1.325" x2="0" y2="1.325" width="0.2" layer="21"/>
</package>
</packages>
<symbols>
<symbol name="PZ254V-11-08P">
<wire x1="5.08" y1="2.54" x2="15.24" y2="2.54" width="0.254" layer="94"/>
<wire x1="15.24" y1="-20.32" x2="15.24" y2="2.54" width="0.254" layer="94"/>
<wire x1="15.24" y1="-20.32" x2="5.08" y2="-20.32" width="0.254" layer="94"/>
<wire x1="5.08" y1="2.54" x2="5.08" y2="-20.32" width="0.254" layer="94"/>
<text x="16.51" y="7.62" align="center-left" size="1.778" layer="95">&gt;NAME</text>
<text x="16.51" y="5.08" align="center-left" size="1.778" layer="96">&gt;VALUE</text>
<pin name="1" x="0" y="0" length="middle" direction="io" rot="R0"/>
<pin name="2" x="0" y="-2.54" length="middle" direction="io" rot="R0"/>
<pin name="3" x="0" y="-5.08" length="middle" direction="io" rot="R0"/>
<pin name="4" x="0" y="-7.62" length="middle" direction="io" rot="R0"/>
<pin name="5" x="0" y="-10.16" length="middle" direction="io" rot="R0"/>
<pin name="6" x="0" y="-12.7" length="middle" direction="io" rot="R0"/>
<pin name="7" x="0" y="-15.24" length="middle" direction="io" rot="R0"/>
<pin name="8" x="0" y="-17.78" length="middle" direction="io" rot="R0"/>
</symbol>
</symbols>
<devicesets>
<deviceset name="PZ254V-11-08P" prefix="J">
<description>&lt;b&gt;Straight 2.54mm Black Brass Plugin,P=2.54mm Pin Headers ROHS&lt;/b&gt;&lt;p&gt;
Source: &lt;a href="https://datasheet.lcsc.com/lcsc/2003191006_XFCN-PZ254V-11-08P_C492407.pdf"&gt; Datasheet &lt;/a&gt;</description>
<gates>
<gate name="G$1" symbol="PZ254V-11-08P" x="0" y="0"/>
</gates>
<devices>
<device name="" package="HDRV8W64P0X254_1X8_2032X250X89">
<connects>
<connect gate="G$1" pin="1" pad="1"/>
<connect gate="G$1" pin="2" pad="2"/>
<connect gate="G$1" pin="3" pad="3"/>
<connect gate="G$1" pin="4" pad="4"/>
<connect gate="G$1" pin="5" pad="5"/>
<connect gate="G$1" pin="6" pad="6"/>
<connect gate="G$1" pin="7" pad="7"/>
<connect gate="G$1" pin="8" pad="8"/>
</connects>
<technologies>
<technology name="">
<attribute name="Manufacturer_Name" value="XFCN" constant="no"/>
<attribute name="Manufacturer_Part_Number" value="PZ254V-11-08P" constant="no"/>
<attribute name="Mouser_Part_Number" value="" constant="no"/>
<attribute name="Mouser_Price-Stock" value="" constant="no"/>
<attribute name="Arrow_Part_Number" value="" constant="no"/>
<attribute name="Arrow_Price-Stock" value="" constant="no"/>
<attribute name="Description" value="Straight 2.54mm Black Brass Plugin,P=2.54mm Pin Headers ROHS" constant="no"/>
<attribute name="Height" value="8.9mm" constant="no"/>
</technology>
</technologies>
</device>
</devices>
</deviceset>
</devicesets>
</library>
</drawing>
</eagle>
