PCBNEW-LibModule-V1  2022-03-06 09:34:28
# encoding utf-8
Units mm
$INDEX
QFN50P500X500X100-29N-D
$EndINDEX
$MODULE QFN50P500X500X100-29N-D
Po 0 0 0 15 62248024 00000000 ~~
Li QFN50P500X500X100-29N-D
Cd QFN-28_1
Kw Integrated Circuit
Sc 0
At SMD
AR 
Op 0 0 0
T0 0 0 1.27 1.27 0 0.254 N V 21 N "IC**"
T1 0 0 1.27 1.27 0 0.254 N I 21 N "QFN50P500X500X100-29N-D"
DS -3.15 -3.15 3.15 -3.15 0.05 24
DS 3.15 -3.15 3.15 3.15 0.05 24
DS 3.15 3.15 -3.15 3.15 0.05 24
DS -3.15 3.15 -3.15 -3.15 0.05 24
DS -2.5 -2.5 2.5 -2.5 0.1 24
DS 2.5 -2.5 2.5 2.5 0.1 24
DS 2.5 2.5 -2.5 2.5 0.1 24
DS -2.5 2.5 -2.5 -2.5 0.1 24
DS -2.5 -2 -2 -2.5 0.1 24
DC -2.9 -2.25 -2.775 -2.25 0.254 21
$PAD
Po -2.4 -1.5
Sh "1" R 0.3 1 0 0 900
At SMD N 00888000
Ne 0 ""
$EndPAD
$PAD
Po -2.4 -1
Sh "2" R 0.3 1 0 0 900
At SMD N 00888000
Ne 0 ""
$EndPAD
$PAD
Po -2.4 -0.5
Sh "3" R 0.3 1 0 0 900
At SMD N 00888000
Ne 0 ""
$EndPAD
$PAD
Po -2.4 0
Sh "4" R 0.3 1 0 0 900
At SMD N 00888000
Ne 0 ""
$EndPAD
$PAD
Po -2.4 0.5
Sh "5" R 0.3 1 0 0 900
At SMD N 00888000
Ne 0 ""
$EndPAD
$PAD
Po -2.4 1
Sh "6" R 0.3 1 0 0 900
At SMD N 00888000
Ne 0 ""
$EndPAD
$PAD
Po -2.4 1.5
Sh "7" R 0.3 1 0 0 900
At SMD N 00888000
Ne 0 ""
$EndPAD
$PAD
Po -1.5 2.4
Sh "8" R 0.3 1 0 0 0
At SMD N 00888000
Ne 0 ""
$EndPAD
$PAD
Po -1 2.4
Sh "9" R 0.3 1 0 0 0
At SMD N 00888000
Ne 0 ""
$EndPAD
$PAD
Po -0.5 2.4
Sh "10" R 0.3 1 0 0 0
At SMD N 00888000
Ne 0 ""
$EndPAD
$PAD
Po 0 2.4
Sh "11" R 0.3 1 0 0 0
At SMD N 00888000
Ne 0 ""
$EndPAD
$PAD
Po 0.5 2.4
Sh "12" R 0.3 1 0 0 0
At SMD N 00888000
Ne 0 ""
$EndPAD
$PAD
Po 1 2.4
Sh "13" R 0.3 1 0 0 0
At SMD N 00888000
Ne 0 ""
$EndPAD
$PAD
Po 1.5 2.4
Sh "14" R 0.3 1 0 0 0
At SMD N 00888000
Ne 0 ""
$EndPAD
$PAD
Po 2.4 1.5
Sh "15" R 0.3 1 0 0 900
At SMD N 00888000
Ne 0 ""
$EndPAD
$PAD
Po 2.4 1
Sh "16" R 0.3 1 0 0 900
At SMD N 00888000
Ne 0 ""
$EndPAD
$PAD
Po 2.4 0.5
Sh "17" R 0.3 1 0 0 900
At SMD N 00888000
Ne 0 ""
$EndPAD
$PAD
Po 2.4 0
Sh "18" R 0.3 1 0 0 900
At SMD N 00888000
Ne 0 ""
$EndPAD
$PAD
Po 2.4 -0.5
Sh "19" R 0.3 1 0 0 900
At SMD N 00888000
Ne 0 ""
$EndPAD
$PAD
Po 2.4 -1
Sh "20" R 0.3 1 0 0 900
At SMD N 00888000
Ne 0 ""
$EndPAD
$PAD
Po 2.4 -1.5
Sh "21" R 0.3 1 0 0 900
At SMD N 00888000
Ne 0 ""
$EndPAD
$PAD
Po 1.5 -2.4
Sh "22" R 0.3 1 0 0 0
At SMD N 00888000
Ne 0 ""
$EndPAD
$PAD
Po 1 -2.4
Sh "23" R 0.3 1 0 0 0
At SMD N 00888000
Ne 0 ""
$EndPAD
$PAD
Po 0.5 -2.4
Sh "24" R 0.3 1 0 0 0
At SMD N 00888000
Ne 0 ""
$EndPAD
$PAD
Po 0 -2.4
Sh "25" R 0.3 1 0 0 0
At SMD N 00888000
Ne 0 ""
$EndPAD
$PAD
Po -0.5 -2.4
Sh "26" R 0.3 1 0 0 0
At SMD N 00888000
Ne 0 ""
$EndPAD
$PAD
Po -1 -2.4
Sh "27" R 0.3 1 0 0 0
At SMD N 00888000
Ne 0 ""
$EndPAD
$PAD
Po -1.5 -2.4
Sh "28" R 0.3 1 0 0 0
At SMD N 00888000
Ne 0 ""
$EndPAD
$PAD
Po 0 0
Sh "29" R 3.35 3.35 0 0 0
At SMD N 00888000
Ne 0 ""
$EndPAD
$EndMODULE QFN50P500X500X100-29N-D
$EndLIBRARY
