!PADS-POWERPCB-V9.5-METRIC! DESIGN DATABASE ASCII FILE 1.0
*PARTDECAL*  ITEMS

ALSPT19315CL177TR8 M 0 0 5 2 1 0 2
CLOSED 5 0.2 0 27
-0.850 0.400
0.850 0.400
0.850 -0.400
-0.850 -0.400
-0.850 0.400
CLOSED 5 0.1 0 20
-2.000 0.800
1.550 0.800
1.550 -0.800
-2.000 -0.800
-2.000 0.800
OPEN 2 0.1 0 26
-0.200 0.400
0.200 0.400
OPEN 2 0.1 0 26
-0.200 -0.400
0.200 -0.400
OPEN 5 0.2 0 26
-1.500 0.100
-1.500 0.100 900 -1800 -1.600 -0.100 -1.400 0.100
-1.500 -0.100
-1.500 -0.100 -900 -1800 -1.600 -0.100 -1.400 0.100
-1.500 0.100
VALUE -0.225 0.000 0 1 1.27 0.127 N LEFT DOWN
Regular <Romansim Stroke Font>
Ref.Des.
VALUE -0.225 0.000 0 1 1.27 0.127 N LEFT UP
Regular <Romansim Stroke Font>
Part Type
T-0.750 0.000 -0.750 0.000 1
T0.750 0.000 0.750 0.000 2
PAD 0 3
-2 0.800 S 0.000 0
-1 0 R
0 0 R

*END*     OF ASCII OUTPUT FILE
