PCBNEW-LibModule-V1  2022-04-08 12:29:21
# encoding utf-8
Units mm
$INDEX
ALSPT19315CL177TR8
$EndINDEX
$MODULE ALSPT19315CL177TR8
Po 0 0 0 15 62501c91 00000000 ~~
Li ALSPT19315CL177TR8
Cd ALS-PT19-315C/L177/TR8
Kw Resistor
Sc 0
At SMD
AR 
Op 0 0 0
T0 -0.225 -0 1.27 1.27 0 0.254 N V 21 N "R**"
T1 -0.225 -0 1.27 1.27 0 0.254 N I 21 N "ALSPT19315CL177TR8"
DS -0.85 -0.4 0.85 -0.4 0.2 24
DS 0.85 -0.4 0.85 0.4 0.2 24
DS 0.85 0.4 -0.85 0.4 0.2 24
DS -0.85 0.4 -0.85 -0.4 0.2 24
DS -2 -0.8 1.55 -0.8 0.1 24
DS 1.55 -0.8 1.55 0.8 0.1 24
DS 1.55 0.8 -2 0.8 0.1 24
DS -2 0.8 -2 -0.8 0.1 24
DS -0.2 -0.4 0.2 -0.4 0.1 21
DS -0.2 0.4 0.2 0.4 0.1 21
DS -1.5 -0.1 -1.5 -0.1 0.2 21
DS -1.5 0.1 -1.5 0.1 0.2 21
DA -1.5 -0 -1.500 -0.1 1800 0.2 21
DA -1.5 -0 -1.500 0.1 1800 0.2 21
$PAD
Po -0.750 -0
Sh "1" R 0.800 0.800 0 0 900
At SMD N 00888000
Ne 0 ""
$EndPAD
$PAD
Po 0.750 -0
Sh "2" R 0.800 0.800 0 0 900
At SMD N 00888000
Ne 0 ""
$EndPAD
$EndMODULE ALSPT19315CL177TR8
$EndLIBRARY
