PCBNEW-LibModule-V1  2022-03-17 19:13:10
# encoding utf-8
Units mm
$INDEX
KEYSTONE-1042
$EndINDEX
$MODULE KEYSTONE-1042
Po 0 0 0 15 62338846 00000000 ~~
Li KEYSTONE-1042
Cd keystone-1042
Kw Undefined or Miscellaneous
Sc 0
At STD
AR 
Op 0 0 0
T0 0 0 1.27 1.27 0 0.254 N V 21 N "U**"
T1 0 0 1.27 1.27 0 0.254 N I 21 N "KEYSTONE-1042"
DS -38.525 -10.325 38.525 -10.325 0.1 21
DS 38.525 -10.325 38.525 10.325 0.1 21
DS 38.525 10.325 -38.525 10.325 0.1 21
DS -38.525 10.325 -38.525 -10.325 0.1 21
DS -38.525 -10.325 38.525 -10.325 0.1 24
DS 38.525 -10.325 38.525 10.325 0.1 24
DS 38.525 10.325 -38.525 10.325 0.1 24
DS -38.525 10.325 -38.525 -10.325 0.1 24
$PAD
Po -43 0
Sh "1" R 6.35 7.34 0 0 900
At SMD N 00888000
Ne 0 ""
$EndPAD
$PAD
Po 43 0
Sh "2" R 6.35 7.34 0 0 900
At SMD N 00888000
Ne 0 ""
$EndPAD
$PAD
Po -27.6 8
Sh "3" C 3.45 3.45 0 0 900
Dr 3.45 0 0
At STD N 00E0FFFF
Ne 0 ""
$EndPAD
$PAD
Po 27.6 -8
Sh "4" C 3.45 3.45 0 0 900
Dr 3.45 0 0
At STD N 00E0FFFF
Ne 0 ""
$EndPAD
$PAD
Po 35.93 8
Sh "5" C 1.57 1.57 0 0 900
Dr 1.57 0 0
At STD N 00E0FFFF
Ne 0 ""
$EndPAD
$EndMODULE KEYSTONE-1042
$EndLIBRARY
