(module "DIPS530W56P200L1100H525Q10N" (layer F.Cu)
  (descr "dip-10")
  (tags "Integrated Circuit")
  (fp_text reference IC** (at 0 0) (layer F.SilkS)
    (effects (font (size 1.27 1.27) (thickness 0.254)))
  )
  (fp_text user %R (at 0 0) (layer F.Fab)
    (effects (font (size 1.27 1.27) (thickness 0.254)))
  )
  (fp_text value "DIPS530W56P200L1100H525Q10N" (at 0 0) (layer F.SilkS) hide
    (effects (font (size 1.27 1.27) (thickness 0.254)))
  )
  (fp_line (start -1.225 -1.875) (end 6.525 -1.875) (layer F.CrtYd) (width 0.05))
  (fp_line (start 6.525 -1.875) (end 6.525 9.875) (layer F.CrtYd) (width 0.05))
  (fp_line (start 6.525 9.875) (end -1.225 9.875) (layer F.CrtYd) (width 0.05))
  (fp_line (start -1.225 9.875) (end -1.225 -1.875) (layer F.CrtYd) (width 0.05))
  (fp_line (start -0.975 -1.625) (end 6.275 -1.625) (layer F.Fab) (width 0.1))
  (fp_line (start 6.275 -1.625) (end 6.275 9.625) (layer F.Fab) (width 0.1))
  (fp_line (start 6.275 9.625) (end -0.975 9.625) (layer F.Fab) (width 0.1))
  (fp_line (start -0.975 9.625) (end -0.975 -1.625) (layer F.Fab) (width 0.1))
  (fp_line (start -0.975 -0.625) (end 0.025 -1.625) (layer F.Fab) (width 0.1))
  (fp_line (start -0.975 9.625) (end 6.275 9.625) (layer F.SilkS) (width 0.2))
  (fp_line (start 6.275 -1.625) (end -0.975 -1.625) (layer F.SilkS) (width 0.2))
  (fp_line (start -0.975 -1.625) (end -0.975 0) (layer F.SilkS) (width 0.2))
  (pad 1 thru_hole rect (at 0 0) (size 1.275 1.275) (drill 0.85) (layers *.Cu *.Mask))
  (pad 2 thru_hole circle (at 0 2) (size 1.275 1.275) (drill 0.85) (layers *.Cu *.Mask))
  (pad 3 thru_hole circle (at 0 4) (size 1.275 1.275) (drill 0.85) (layers *.Cu *.Mask))
  (pad 4 thru_hole circle (at 0 6) (size 1.275 1.275) (drill 0.85) (layers *.Cu *.Mask))
  (pad 5 thru_hole circle (at 0 8) (size 1.275 1.275) (drill 0.85) (layers *.Cu *.Mask))
  (pad 6 thru_hole circle (at 5.3 8) (size 1.275 1.275) (drill 0.85) (layers *.Cu *.Mask))
  (pad 7 thru_hole circle (at 5.3 6) (size 1.275 1.275) (drill 0.85) (layers *.Cu *.Mask))
  (pad 8 thru_hole circle (at 5.3 4) (size 1.275 1.275) (drill 0.85) (layers *.Cu *.Mask))
  (pad 9 thru_hole circle (at 5.3 2) (size 1.275 1.275) (drill 0.85) (layers *.Cu *.Mask))
  (pad 10 thru_hole circle (at 5.3 0) (size 1.275 1.275) (drill 0.85) (layers *.Cu *.Mask))
)
