PCBNEW-LibModule-V1  2022-03-10 12:18:49
# encoding utf-8
Units mm
$INDEX
SR0502CTG
$EndINDEX
$MODULE SR0502CTG
Po 0 0 0 15 6229eca9 00000000 ~~
Li SR0502CTG
Cd SOT-143
Kw TVS Diode (Uni-directional)
Sc 0
At SMD
AR 
Op 0 0 0
T0 0.000 0.125 1.27 1.27 0 0.254 N V 21 N "D**"
T1 0.000 0.125 1.27 1.27 0 0.254 N I 21 N "SR0502CTG"
DS -1.46 -0.65 1.46 -0.65 0.2 24
DS 1.46 -0.65 1.46 0.65 0.2 24
DS 1.46 0.65 -1.46 0.65 0.2 24
DS -1.46 0.65 -1.46 -0.65 0.2 24
DS -1.96 -2.3 1.96 -2.3 0.1 24
DS 1.96 -2.3 1.96 2.55 0.1 24
DS 1.96 2.55 -1.96 2.55 0.1 24
DS -1.96 2.55 -1.96 -2.3 0.1 24
DS -0.3 -0.65 0.3 -0.65 0.1 21
DS -1.46 -0.2 -1.46 0.2 0.1 21
DS -0.1 0.65 0.3 0.65 0.1 21
DS 1.46 -0.2 1.46 0.2 0.1 21
DS -0.9 2 -0.9 2 0.1 21
DS -0.8 2 -0.8 2 0.1 21
DA -0.85 2 -0.900 2 1800 0.1 21
DA -0.85 2 -0.800 2 1800 0.1 21
$PAD
Po -0.860 1.1
Sh "1" R 1.100 1.400 0 0 0
At SMD N 00888000
Ne 0 ""
$EndPAD
$PAD
Po 0.960 1.1
Sh "2" R 0.900 1.400 0 0 0
At SMD N 00888000
Ne 0 ""
$EndPAD
$PAD
Po 0.960 -1.1
Sh "3" R 0.900 1.400 0 0 0
At SMD N 00888000
Ne 0 ""
$EndPAD
$PAD
Po -0.960 -1.1
Sh "4" R 0.900 1.400 0 0 0
At SMD N 00888000
Ne 0 ""
$EndPAD
$EndMODULE SR0502CTG
$EndLIBRARY
