Reference ,Name JLC,footprint ,Footprint/JLC name,Datasheet ,Price ($),Qty,,,,,,,,,,,,,,1
    BT1,Batte+B2:D40ry (18650),XDCR_ALS-PT19-315C/L177/TR8,,https://vula.uct.ac.za/access/content/group/49dd2b4a-7fb6-4bdf-bdb5-2ef9054204a4/11.%20Additional%20resources/datasheets/Through%20Hole_18650%20Single%20Battery.pdf,0.2523,1,0.2523,,,,,,,,,,,,,2
">  C1, C2",10uF,Capacitor_SMD:C_0603_1608Metric_Pad1.08x0.95mm_HandSolder,GRM21BR61H106KE43L,https://datasheet.lcsc.com/lcsc/2004251506_Murata-Electronics-GRM21BR61H106KE43L_C440198.pdf,0.1113,2,0.2226,,,,,,,,,,,,,1
    C3,1uF,Capacitor_SMD:C_0603_1608Metric_Pad1.08x0.95mm_HandSolder,CL21B105KBFNNNE,https://datasheet.lcsc.com/lcsc/1810191216_Samsung-Electro-Mechanics-CL21B105KBFNNNE_C28323.pdf,0.0101,1,0.0101,,,,,,,,,,,,,2
C4,1u,Capacitor_SMD:C_0603_1608Metric_Pad1.08x0.95mm_HandSolder,CL21B105KBFNNNE,https://datasheet.lcsc.com/lcsc/1810191216_Samsung-Electro-Mechanics-CL21B105KBFNNNE_C28323.pdf,0.0135,1,0.0135,,,,,,,,,,,,,1
    D0,BZX84Cxx,Capacitor_SMD:C_0603_1608Metric_Pad1.08x0.95mm_HandSolder,Diode_SMD:D_SOT-23_ANK,https://diotec.com/tl_files/diotec/files/pdf/datasheets/bzx84c2v4.pdf,0.0087,1,0.0087,,,,,,,,,,,,,8
">  D1, D2,",LED,Capacitor_SMD:C_0603_1608Metric_Pad1.08x0.95mm_HandSolder,C2296,https://datasheet.lcsc.com/lcsc/1806151129_Hubei-KENTO-Elec-17-21SUYC-TR8_C2296.pdf,0.0088,2,0.0704,,,,,,,,,,,,,1
    D3,1N5819,Capacitor_SMD:C_0603_1608Metric_Pad1.08x0.95mm_HandSolder,Diode_THT:D_DO-41_SOD81_P10.16mm_Horizontal,http://www.vishay.com/docs/88525/1n5817.pdf,0.0184,1,0.0184,,,,,,,,,,,,,1
">  D6, D13",1N5711,SR0502CTG,Diode_THT:D_DO-35_SOD27_P7.62mm_Horizontal,https://www.microsemi.com/document-portal/doc_download/8865-lds-0040-datasheet,0.0184,2,0.0368,,,,,,,,,,,,,1
    J5,TP4056,Connector_PinHeader_2.54mm:PinHeader_1x33_P2.54mm_Vertical,SOIC127P600X175-9N,https://dlnmh9ip6v2uc.cloudfront.net/datasheets/Prototyping/TP4056.pdf,0.2578,1,0.2578,,,,,,,,,,,,,1
 Q4,"FQP27P06 (MOSFET) 
AO3401A",SOIC127P600X175-9N,Package_TO_SOT_THT:TO-220-3_Vertical,https://www.onsemi.com/pub/Collateral/FQP27P06-D.PDF,0.1774,1,0.3548,,,,,,,,,,,,,1
    Q2,DMP3013SFV,MICROXNJ,Package_SON:Diodes_PowerDI3333-8,https://www.diodes.com/assets/Datasheets/DMP3013SFV.pdf,0.18806,1,0.18806,,,,,,,,,,,,,1
R0 ,2k,Package_TO_SOT_THT:TO-220-3_Vertical,"
C46653",https://datasheet.lcsc.com/lcsc/1808311543_Samsung-Electro-Mechanics-CL21B102KBCNNNC_C46653.pdf,0.0088,1,0.0088,,,,,,,,,,,,,3
R8 ,110k,RESC1607X60N,"
C25805",https://datasheet.lcsc.com/lcsc/2110260030_UNI-ROYAL-Uniroyal-Elec-0603WAF1103T5E_C25805.pdf,0.0014,1,0.0014,,,,,,,,,,,,,1
R9 ,13k,Resistor_SMD:R_0603_1608Metric_Pad0.98x0.95mm_HandSolder,C22797,https://datasheet.lcsc.com/lcsc/2110252030_UNI-ROYAL-Uniroyal-Elec-0603WAF1302T5E_C22797.pdf,0.0015,1,0.0015,,,,,,,,,,,,,11
">  R5-R7, R10, R12",1k,Resistor_SMD:R_0603_1608Metric_Pad0.98x0.95mm_HandSolder,C53172,https://datasheet.lcsc.com/lcsc/1810191219_Samsung-Electro-Mechanics-CL21B221KBANNNC_C53172.pdf,0.0088,4,0.0968,,,,,,,,,,,,,6
">  R11, R15-R17",4.7k,Resistor_SMD:R_0603_1608Metric_Pad0.98x0.95mm_HandSolder,"
C17673",https://datasheet.lcsc.com/lcsc/2110251830_UNI-ROYAL-Uniroyal-Elec-0805W8F4701T5E_C17673.pdf,0.0027,4,0.0162,,,,,,,,,,,,,1
R14 ,3.3k,Resistor_SMD:R_0603_1608Metric_Pad0.98x0.95mm_HandSolder,C25890,https://datasheet.lcsc.com/lcsc/2110260030_UNI-ROYAL-Uniroyal-Elec-0402WGF3301TCE_C25890.pdf,0.0014,1,0.0014,,,,,,,,,,,,,1
    SW1,SW_MEC_5G,Resistor_SMD:R_0603_1608Metric_Pad0.98x0.95mm_HandSolder,,http://www.apem.com/int/index.php?controller=attachment&id_attachment=488,0.0007,1,0.0007,,,,,,,,,,,,,1
    U2,MCP6541,Resistor_SMD:R_0603_1608Metric_Pad0.98x0.95mm_HandSolder,"
C7377",https://www.farnell.com/datasheets/1641674.pdf,0.48,1,0.48,,,,,,,,,,,,,1
    U3,AMS1117-3.3,Package_SO:SOIC-8_3.9x4.9mm_P1.27mm,"
C58069",http://www.advanced-monolithic.com/pdf/ds1117.pdf,0.4279,1,0.4279,,,,,,,,,,,,,
,,,,,,Total,12.40106,,,,,,,,,,,,,