PCBNEW-LibModule-V1  2022-03-17 13:24:35
# encoding utf-8
Units mm
$INDEX
SOT95P240X114-3N
$EndINDEX
$MODULE SOT95P240X114-3N
Po 0 0 0 15 62333693 00000000 ~~
Li SOT95P240X114-3N
Cd SOT-23-2
Kw Transistor BJT NPN
Sc 0
At SMD
AR 
Op 0 0 0
T0 0 0 1.27 1.27 0 0.254 N V 21 N "Q**"
T1 0 0 1.27 1.27 0 0.254 N I 21 N "SOT95P240X114-3N"
DS -1.875 -1.75 1.875 -1.75 0.05 24
DS 1.875 -1.75 1.875 1.75 0.05 24
DS 1.875 1.75 -1.875 1.75 0.05 24
DS -1.875 1.75 -1.875 -1.75 0.05 24
DS -0.65 -1.45 0.65 -1.45 0.1 24
DS 0.65 -1.45 0.65 1.45 0.1 24
DS 0.65 1.45 -0.65 1.45 0.1 24
DS -0.65 1.45 -0.65 -1.45 0.1 24
DS -0.65 -0.5 0.3 -1.45 0.1 24
DS -0.425 -1.45 0.425 -1.45 0.2 21
DS 0.425 -1.45 0.425 1.45 0.2 21
DS 0.425 1.45 -0.425 1.45 0.2 21
DS -0.425 1.45 -0.425 -1.45 0.2 21
DS -1.625 -1.5 -0.775 -1.5 0.2 21
$PAD
Po -1.2 -0.95
Sh "1" R 0.6 0.85 0 0 900
At SMD N 00888000
Ne 0 ""
$EndPAD
$PAD
Po -1.2 0.95
Sh "2" R 0.6 0.85 0 0 900
At SMD N 00888000
Ne 0 ""
$EndPAD
$PAD
Po 1.2 0
Sh "3" R 0.6 0.85 0 0 900
At SMD N 00888000
Ne 0 ""
$EndPAD
$EndMODULE SOT95P240X114-3N
$EndLIBRARY
