PCBNEW-LibModule-V1  2022-03-20 18:35:21
# encoding utf-8
Units mm
$INDEX
SOT95P190X145-3N
$EndINDEX
$MODULE SOT95P190X145-3N
Po 0 0 0 15 623773e9 00000000 ~~
Li SOT95P190X145-3N
Cd SOT-23-3
Kw Power Supply
Sc 0
At SMD
AR 
Op 0 0 0
T0 0 0 1.27 1.27 0 0.254 N V 21 N "PS**"
T1 0 0 1.27 1.27 0 0.254 N I 21 N "SOT95P190X145-3N"
DS -1.625 -1.7 1.625 -1.7 0.05 24
DS 1.625 -1.7 1.625 1.7 0.05 24
DS 1.625 1.7 -1.625 1.7 0.05 24
DS -1.625 1.7 -1.625 -1.7 0.05 24
DS -0.8 -1.45 0.8 -1.45 0.1 24
DS 0.8 -1.45 0.8 1.45 0.1 24
DS 0.8 1.45 -0.8 1.45 0.1 24
DS -0.8 1.45 -0.8 -1.45 0.1 24
DS -0.8 -0.5 0.15 -1.45 0.1 24
DS -1.375 -1.5 -0.125 -1.5 0.2 21
$PAD
Po -0.75 -0.95
Sh "1" R 0.6 1.25 0 0 900
At SMD N 00888000
Ne 0 ""
$EndPAD
$PAD
Po -0.75 0.95
Sh "2" R 0.6 1.25 0 0 900
At SMD N 00888000
Ne 0 ""
$EndPAD
$PAD
Po 0.75 0
Sh "3" R 0.6 1.25 0 0 900
At SMD N 00888000
Ne 0 ""
$EndPAD
$EndMODULE SOT95P190X145-3N
$EndLIBRARY
