PCBNEW-LibModule-V1  2022-03-09 21:50:03
# encoding utf-8
Units mm
$INDEX
HDRV8W64P0X254_1X8_2032X250X890P
$EndINDEX
$MODULE HDRV8W64P0X254_1X8_2032X250X890P
Po 0 0 0 15 6229210b 00000000 ~~
Li HDRV8W64P0X254_1X8_2032X250X890P
Cd PZ254V-11-08P
Kw Connector
Sc 0
At STD
AR 
Op 0 0 0
T0 0 0 1.27 1.27 0 0.254 N V 21 N "J**"
T1 0 0 1.27 1.27 0 0.254 N I 21 N "HDRV8W64P0X254_1X8_2032X250X890P"
DS -1.56 1.575 -1.56 -1.575 0.05 24
DS -1.56 -1.575 19.34 -1.575 0.05 24
DS 19.34 -1.575 19.34 1.575 0.05 24
DS 19.34 1.575 -1.56 1.575 0.05 24
DS -1.31 1.325 -1.31 -1.325 0.1 24
DS -1.31 -1.325 19.09 -1.325 0.1 24
DS 19.09 -1.325 19.09 1.325 0.1 24
DS 19.09 1.325 -1.31 1.325 0.1 24
DS -1.31 0 -1.31 1.325 0.2 21
DS -1.31 1.325 19.09 1.325 0.2 21
DS 19.09 1.325 19.09 -1.325 0.2 21
DS 19.09 -1.325 0 -1.325 0.2 21
$PAD
Po 0 0
Sh "1" R 1.65 1.65 0 0 900
Dr 1.1 0 0
At STD N 00E0FFFF
Ne 0 ""
$EndPAD
$PAD
Po 2.54 0
Sh "2" C 1.65 1.65 0 0 900
Dr 1.1 0 0
At STD N 00E0FFFF
Ne 0 ""
$EndPAD
$PAD
Po 5.08 0
Sh "3" C 1.65 1.65 0 0 900
Dr 1.1 0 0
At STD N 00E0FFFF
Ne 0 ""
$EndPAD
$PAD
Po 7.62 0
Sh "4" C 1.65 1.65 0 0 900
Dr 1.1 0 0
At STD N 00E0FFFF
Ne 0 ""
$EndPAD
$PAD
Po 10.16 0
Sh "5" C 1.65 1.65 0 0 900
Dr 1.1 0 0
At STD N 00E0FFFF
Ne 0 ""
$EndPAD
$PAD
Po 12.7 0
Sh "6" C 1.65 1.65 0 0 900
Dr 1.1 0 0
At STD N 00E0FFFF
Ne 0 ""
$EndPAD
$PAD
Po 15.24 0
Sh "7" C 1.65 1.65 0 0 900
Dr 1.1 0 0
At STD N 00E0FFFF
Ne 0 ""
$EndPAD
$PAD
Po 17.78 0
Sh "8" C 1.65 1.65 0 0 900
Dr 1.1 0 0
At STD N 00E0FFFF
Ne 0 ""
$EndPAD
$EndMODULE HDRV8W64P0X254_1X8_2032X250X890P
$EndLIBRARY
