PCBNEW-LibModule-V1  2022-04-08 12:37:55
# encoding utf-8
Units mm
$INDEX
SOIC127P600X175-9N
$EndINDEX
$MODULE SOIC127P600X175-9N
Po 0 0 0 15 62501e93 00000000 ~~
Li SOIC127P600X175-9N
Cd SOP-8
Kw Connector
Sc 0
At SMD
AR 
Op 0 0 0
T0 0 0 1.27 1.27 0 0.254 N V 21 N "J**"
T1 0 0 1.27 1.27 0 0.254 N I 21 N "SOIC127P600X175-9N"
DS -3.725 -2.8 3.725 -2.8 0.05 24
DS 3.725 -2.8 3.725 2.8 0.05 24
DS 3.725 2.8 -3.725 2.8 0.05 24
DS -3.725 2.8 -3.725 -2.8 0.05 24
DS -1.95 -2.45 1.95 -2.45 0.1 24
DS 1.95 -2.45 1.95 2.45 0.1 24
DS 1.95 2.45 -1.95 2.45 0.1 24
DS -1.95 2.45 -1.95 -2.45 0.1 24
DS -1.95 -1.18 -0.68 -2.45 0.1 24
DS -3.475 -2.605 -1.95 -2.605 0.2 21
$PAD
Po -2.712 -1.905
Sh "1" R 0.7 1.525 0 0 900
At SMD N 00888000
Ne 0 ""
$EndPAD
$PAD
Po -2.712 -0.635
Sh "2" R 0.7 1.525 0 0 900
At SMD N 00888000
Ne 0 ""
$EndPAD
$PAD
Po -2.712 0.635
Sh "3" R 0.7 1.525 0 0 900
At SMD N 00888000
Ne 0 ""
$EndPAD
$PAD
Po -2.712 1.905
Sh "4" R 0.7 1.525 0 0 900
At SMD N 00888000
Ne 0 ""
$EndPAD
$PAD
Po 2.712 1.905
Sh "5" R 0.7 1.525 0 0 900
At SMD N 00888000
Ne 0 ""
$EndPAD
$PAD
Po 2.712 0.635
Sh "6" R 0.7 1.525 0 0 900
At SMD N 00888000
Ne 0 ""
$EndPAD
$PAD
Po 2.712 -0.635
Sh "7" R 0.7 1.525 0 0 900
At SMD N 00888000
Ne 0 ""
$EndPAD
$PAD
Po 2.712 -1.905
Sh "8" R 0.7 1.525 0 0 900
At SMD N 00888000
Ne 0 ""
$EndPAD
$PAD
Po 0 0
Sh "9" R 2.513 3.402 0 0 0
At SMD N 00888000
Ne 0 ""
$EndPAD
$EndMODULE SOIC127P600X175-9N
$EndLIBRARY
