PCBNEW-LibModule-V1  2022-03-10 09:48:54
# encoding utf-8
Units mm
$INDEX
DIPS1524W51P254L3760H800Q12N
$EndINDEX
$MODULE DIPS1524W51P254L3760H800Q12N
Po 0 0 0 15 6229c986 00000000 ~~
Li DIPS1524W51P254L3760H800Q12N
Cd DIP-12-1
Kw Display
Sc 0
At STD
AR 
Op 0 0 0
T0 0 0 1.27 1.27 0 0.254 N V 21 N "DS**"
T1 0 0 1.27 1.27 0 0.254 N I 21 N "DIPS1524W51P254L3760H800Q12N"
DS -2.13 -12.7 17.37 -12.7 0.05 24
DS 17.37 -12.7 17.37 25.4 0.05 24
DS 17.37 25.4 -2.13 25.4 0.05 24
DS -2.13 25.4 -2.13 -12.7 0.05 24
DS -1.88 -12.45 17.12 -12.45 0.1 24
DS 17.12 -12.45 17.12 25.15 0.1 24
DS 17.12 25.15 -1.88 25.15 0.1 24
DS -1.88 25.15 -1.88 -12.45 0.1 24
DS -1.88 -11.18 -0.61 -12.45 0.1 24
DS -1.88 25.15 17.12 25.15 0.2 21
DS 17.12 -12.45 -1.88 -12.45 0.2 21
DS -1.88 -12.45 -1.88 0 0.2 21
$PAD
Po 0 0
Sh "1" R 1.1 1.1 0 0 900
Dr 0.7 0 0
At STD N 00E0FFFF
Ne 0 ""
$EndPAD
$PAD
Po 0 2.54
Sh "2" C 1.1 1.1 0 0 900
Dr 0.7 0 0
At STD N 00E0FFFF
Ne 0 ""
$EndPAD
$PAD
Po 0 5.08
Sh "3" C 1.1 1.1 0 0 900
Dr 0.7 0 0
At STD N 00E0FFFF
Ne 0 ""
$EndPAD
$PAD
Po 0 7.62
Sh "4" C 1.1 1.1 0 0 900
Dr 0.7 0 0
At STD N 00E0FFFF
Ne 0 ""
$EndPAD
$PAD
Po 0 10.16
Sh "5" C 1.1 1.1 0 0 900
Dr 0.7 0 0
At STD N 00E0FFFF
Ne 0 ""
$EndPAD
$PAD
Po 0 12.7
Sh "6" C 1.1 1.1 0 0 900
Dr 0.7 0 0
At STD N 00E0FFFF
Ne 0 ""
$EndPAD
$PAD
Po 15.24 12.7
Sh "7" C 1.1 1.1 0 0 900
Dr 0.7 0 0
At STD N 00E0FFFF
Ne 0 ""
$EndPAD
$PAD
Po 15.24 10.16
Sh "8" C 1.1 1.1 0 0 900
Dr 0.7 0 0
At STD N 00E0FFFF
Ne 0 ""
$EndPAD
$PAD
Po 15.24 7.62
Sh "9" C 1.1 1.1 0 0 900
Dr 0.7 0 0
At STD N 00E0FFFF
Ne 0 ""
$EndPAD
$PAD
Po 15.24 5.08
Sh "10" C 1.1 1.1 0 0 900
Dr 0.7 0 0
At STD N 00E0FFFF
Ne 0 ""
$EndPAD
$PAD
Po 15.24 2.54
Sh "11" C 1.1 1.1 0 0 900
Dr 0.7 0 0
At STD N 00E0FFFF
Ne 0 ""
$EndPAD
$PAD
Po 15.24 0
Sh "12" C 1.1 1.1 0 0 900
Dr 0.7 0 0
At STD N 00E0FFFF
Ne 0 ""
$EndPAD
$EndMODULE DIPS1524W51P254L3760H800Q12N
$EndLIBRARY
