Designator,Val,Package,Mid X,Mid Y,Rotation,Layer
A1,ALS-PT19-315C/L177/TR8,ALSPT19315CL177TR8,157.48,-82.55,180.0,top
BT1,Battery (18650),KEYSTONE-1042,141.732,-151.384,0.0,top
C1,10uF,C_0603_1608Metric,110.49,-85.09,-90.0,top
C2,1.0uF,C_0805_2012Metric,103.6574,-92.7862,0.0,top
C3,10uF,C_0603_1608Metric,110.49,-88.9,-90.0,top
C4,22uF,C_0603_1608Metric,104.9528,-109.8296,0.0,top
C5,10uF,C_0603_1608Metric,104.775,-104.775,180.0,top
C6,0.1uF,C_0603_1608Metric,180.34,-91.44,0.0,top
C7,0.1uF,C_0603_1608Metric,106.3244,-112.1918,180.0,top
C8,1.0uF,C_0805_2012Metric,157.48,-86.36,0.0,top
C100nF1,CL05B104KO5NNNC,C_0402_1005Metric_Pad0.74x0.62mm_HandSolder,100.7872,-138.938,180.0,top
C100UF1,CL31A107MQHNNNE,C_1206_3216Metric,152.908,-79.756,180.0,top
D1,C2297,LED_0805_2012Metric,105.4862,-130.937,90.0,top
D2,C2297,LED_0805_2012Metric,108.7628,-130.9116,90.0,top
D3,C2297,LED_0805_2012Metric,128.2446,-136.3218,180.0,top
D4,1N5819,D_SOD-123,101.6,-114.3,-90.0,top
D5,C2297,LED_0805_2012Metric,123.444,-136.2456,180.0,top
D6,C2297,LED_0805_2012Metric,96.4438,-71.1454,0.0,top
D7,C2297,LED_0805_2012Metric,96.4692,-74.93,0.0,top
D8,C2297,LED_0805_2012Metric,96.6216,-67.4116,0.0,top
D9,SP0503BAHT,SR0502CTG,144.78,-90.17,180.0,top
D10,C2297,LED_0805_2012Metric,133.3754,-136.398,0.0,top
IC1,TOS-3124DMG-9B4,DIPS530W56P200L1100H525Q10N,182.436,-136.254,90.0,top
IC2,CP2102-GMR,QFN50P500X500X100-29N-D,144.78,-99.06,-90.0,top
IC3,TOS-3124DMG-9B4,DIPS530W56P200L1100H525Q10N,182.436,-144.89,90.0,top
IC4,LM393DR2G,SOIC127P600X175-8N,119.38,-100.965,0.0,top
J1,Conn_01x33_Female,PinHeader_1x33_P2.54mm_Vertical,189.23,-66.04,-90.0,top
J2,Conn_01x33_Female,PinSocket_1x33_P2.54mm_Vertical,189.23,-76.2,-90.0,top
J3,Conn_01x33_Female,PinSocket_1x33_P2.54mm_Vertical,189.23,-116.84,-90.0,top
J4,Conn_01x33_Female,PinHeader_1x33_P2.54mm_Vertical,189.23,-127.0,-90.0,top
J5,TP4056,SOIC127P600X175-9N,99.06,-87.63,0.0,top
J8,MICROXNJ,MICROXNJ,191.77,-96.52,-90.0,top
PS1,BZX84C24,SOT-23,106.68,-97.155,0.0,top
Q1,AO3401A,SOT95P280X125-3N,97.79,-96.52,-90.0,top
Q2,AO3401A,SOT95P280X125-3N,109.22,-102.87,180.0,top
Q3,Q_PNP_BCE,SOT-23,165.735,-137.795,0.0,top
Q4,Q_PNP_BCE,SOT-23,150.495,-137.795,0.0,top
Q5,Q_PNP_BCE,SOT-23,160.655,-137.795,0.0,top
Q6,Q_PNP_BCE,SOT-23,155.575,-137.795,0.0,top
R1,2k,R_0603_1608Metric,118.11,-83.82,0.0,top
R2,1k,R_0805_2012Metric,104.14,-135.0245,90.0,top
R3,1k,R_0805_2012Metric,108.712,-135.0245,-90.0,top
R4,100k,R_0603_1608Metric,119.38,-97.155,180.0,top
R5,22k,R_0603_1608Metric,118.11,-88.9,0.0,top
R6,1k,R_0805_2012Metric,113.03,-95.25,0.0,top
R7,4.7k,R_0805_2012Metric,123.19,-93.98,90.0,top
R9,100,R_0805_2012Metric,170.434,-130.048,0.0,top
R10,1k,R_0805_2012Metric,141.5815,-133.604,0.0,top
R11,1k,R_0805_2012Metric,152.908,-133.604,0.0,top
R12,1k,R_0805_2012Metric,147.1695,-133.604,0.0,top
R13,1k,R_0805_2012Metric,123.3951,-133.7564,0.0,top
R14,1k,R_0805_2012Metric,128.2173,-133.7564,0.0,top
R15,1k,R_0805_2012Metric,101.9575,-74.93,0.0,top
R16,10k,R_1206_3216Metric,152.6286,-84.455,0.0,top
R19,1k,R_0805_2012Metric,119.0752,-113.7158,180.0,top
R21,100,R_0805_2012Metric,178.816,-122.428,180.0,top
R22,100,R_0805_2012Metric,186.69,-122.428,0.0,top
R23,100,R_0805_2012Metric,178.054,-130.048,180.0,top
R24,100,R_0805_2012Metric,166.37,-130.048,0.0,top
R25,100,R_0805_2012Metric,174.244,-130.048,0.0,top
R26,100,R_0805_2012Metric,162.7105,-130.048,180.0,top
R27,100,R_0805_2012Metric,159.004,-130.048,180.0,top
R28,1k,R_0805_2012Metric,158.496,-133.604,0.0,top
R29,100,R_0805_2012Metric,175.514,-114.046,0.0,top
R32,1k,R_0805_2012Metric,101.6,-71.12,0.0,top
R33,1k,R_0805_2012Metric,138.1017,-136.3726,0.0,top
R34,1k,R_0805_2012Metric,101.6,-67.31,0.0,top
S1,TS-1187A-B-A-B,TS1187ABAB,114.554,-134.112,90.0,top
TP1,TestPoint,TestPoint_THTPad_1.5x1.5mm_Drill0.7mm,100.1522,-81.0768,0.0,top
TP2,TestPoint,TestPoint_THTPad_1.5x1.5mm_Drill0.7mm,96.52,-137.16,0.0,top
TP3,TestPoint,TestPoint_THTPad_1.5x1.5mm_Drill0.7mm,96.52,-104.14,0.0,top
TP4,TestPoint,TestPoint_THTPad_1.5x1.5mm_Drill0.7mm,97.6376,-113.5888,0.0,top
TP5,TestPoint,TestPoint_THTPad_1.5x1.5mm_Drill0.7mm,190.4746,-110.49,0.0,top
TP6,TestPoint,TestPoint_THTPad_1.5x1.5mm_Drill0.7mm,190.4238,-107.5436,0.0,top
TP7,TestPoint,TestPoint_THTPad_1.5x1.5mm_Drill0.7mm,190.373,-104.6226,0.0,top
TP8,TestPoint,TestPoint_THTPad_1.5x1.5mm_Drill0.7mm,96.2406,-78.7146,0.0,top
TP9,TestPoint,TestPoint_THTPad_1.5x1.5mm_Drill0.7mm,96.1644,-82.7024,0.0,top
TP10,TestPoint,TestPoint_THTPad_1.5x1.5mm_Drill0.7mm,103.9114,-81.0768,0.0,top
U2,AMS1117-3.3,SOT-223-3_TabPin2,99.06,-130.81,-90.0,top
U3,SHT20,SON100P300X300X110-7N,100.33,-123.19,0.0,top
U4,M24C02-WMN,SOIC-8_3.9x4.9mm_P1.27mm,157.48,-97.79,180.0,top
