PCBNEW-LibModule-V1  2022-03-11 15:14:02
# encoding utf-8
Units mm
$INDEX
TS1187ABAB
$EndINDEX
$MODULE TS1187ABAB
Po 0 0 0 15 622b673a 00000000 ~~
Li TS1187ABAB
Cd TS-1187A-B-A-B-1
Kw Switch
Sc 0
At SMD
AR 
Op 0 0 0
T0 -0.500 -0 1.27 1.27 0 0.254 N V 21 N "S**"
T1 -0.500 -0 1.27 1.27 0 0.254 N I 21 N "TS1187ABAB"
DS -2.55 2.55 2.55 2.55 0.2 24
DS 2.55 2.55 2.55 -2.55 0.2 24
DS 2.55 -2.55 -2.55 -2.55 0.2 24
DS -2.55 -2.55 -2.55 2.55 0.2 24
DS -5.5 -3.55 4.5 -3.55 0.1 24
DS 4.5 -3.55 4.5 3.55 0.1 24
DS 4.5 3.55 -5.5 3.55 0.1 24
DS -5.5 3.55 -5.5 -3.55 0.1 24
DS -4.5 -1.9 -4.5 -1.9 0.2 21
DS -4.4 -1.9 -4.4 -1.9 0.2 21
DS -4.5 -1.9 -4.5 -1.9 0.2 21
DS -2.55 -1 -2.55 1 0.1 21
DS 2.55 -1 2.55 1 0.1 21
DS -2 -2.55 2 -2.55 0.1 21
DS -2 2.55 2 2.55 0.1 21
DA -4.45 -1.9 -4.500 -1.9 -1800 0.2 21
DA -4.45 -1.9 -4.400 -1.9 -1800 0.2 21
DA -4.45 -1.9 -4.500 -1.9 -1800 0.2 21
$PAD
Po -3.000 -1.875
Sh "A1" R 0.750 1.000 0 0 900
At SMD N 00888000
Ne 0 ""
$EndPAD
$PAD
Po 3.000 -1.875
Sh "B1" R 0.750 1.000 0 0 900
At SMD N 00888000
Ne 0 ""
$EndPAD
$PAD
Po -3.000 1.875
Sh "C1" R 0.750 1.000 0 0 900
At SMD N 00888000
Ne 0 ""
$EndPAD
$PAD
Po 3.000 1.875
Sh "D1" R 0.750 1.000 0 0 900
At SMD N 00888000
Ne 0 ""
$EndPAD
$EndMODULE TS1187ABAB
$EndLIBRARY
